/home/rihab/Documents/I-lead/Project1/src/test/java/com/example/demo/bdd/LaunchCucumberIntegrationTest.java
/home/rihab/Documents/I-lead/Project1/src/test/java/com/example/demo/DemoApplicationTests.java
/home/rihab/Documents/I-lead/Project1/src/test/java/com/example/demo/bdd/SpringBootBaseIntegrationTest.java
/home/rihab/Documents/I-lead/Project1/src/test/java/com/example/demo/bdd/JeuBDDTest.java
/home/rihab/Documents/I-lead/Project1/src/test/java/com/example/demo/service/JeuServiceTest.java
